{
  "project_info": {
    "project_number": "250550213803",
    "firebase_url": "https://gcp-tutorial-289503.firebaseio.com",
    "project_id": "gcp-tutorial-289503",
    "storage_bucket": "gcp-tutorial-289503.appspot.com"
  },
  "client": [
    {
      "client_info": {
        "mobilesdk_app_id": "1:250550213803:android:c5e57a05015ca6c95e2bee",
        "android_client_info": {
          "package_name": "com.example.aplikasi3"
        }
      },
      "oauth_client": [
        {
          "client_id": "250550213803-n55ou34uoje5mfq9rs38gngpcvun3raj.apps.googleusercontent.com",
          "client_type": 3
        }
      ],
      "api_key": [
        {
          "current_key": "AIzaSyDrB4pp_TjTK0m_ekkXe3qCBinTiEJjJG8"
        }
      ],
      "services": {
        "appinvite_service": {
          "other_platform_oauth_client": [
            {
              "client_id": "250550213803-n55ou34uoje5mfq9rs38gngpcvun3raj.apps.googleusercontent.com",
              "client_type": 3
            }
          ]
        }
      }
    },
    {
      "client_info": {
        "mobilesdk_app_id": "1:250550213803:android:6fa08797b5a7ef715e2bee",
        "android_client_info": {
          "package_name": "com.example.aplikasi4"
        }
      },
      "oauth_client": [
        {
          "client_id": "250550213803-n55ou34uoje5mfq9rs38gngpcvun3raj.apps.googleusercontent.com",
          "client_type": 3
        }
      ],
      "api_key": [
        {
          "current_key": "AIzaSyDrB4pp_TjTK0m_ekkXe3qCBinTiEJjJG8"
        }
      ],
      "services": {
        "appinvite_service": {
          "other_platform_oauth_client": [
            {
              "client_id": "250550213803-n55ou34uoje5mfq9rs38gngpcvun3raj.apps.googleusercontent.com",
              "client_type": 3
            }
          ]
        }
      }
    },
    {
      "client_info": {
        "mobilesdk_app_id": "1:250550213803:android:5b0413b05dcb8c795e2bee",
        "android_client_info": {
          "package_name": "com.example.firebase"
        }
      },
      "oauth_client": [
        {
          "client_id": "250550213803-n55ou34uoje5mfq9rs38gngpcvun3raj.apps.googleusercontent.com",
          "client_type": 3
        }
      ],
      "api_key": [
        {
          "current_key": "AIzaSyDrB4pp_TjTK0m_ekkXe3qCBinTiEJjJG8"
        }
      ],
      "services": {
        "appinvite_service": {
          "other_platform_oauth_client": [
            {
              "client_id": "250550213803-n55ou34uoje5mfq9rs38gngpcvun3raj.apps.googleusercontent.com",
              "client_type": 3
            }
          ]
        }
      }
    }
  ],
  "configuration_version": "1"
}